TOR3_05.CSV

Record Length,700
Sample Interval,0.000016
Trig Position,10239
Data Interval,0.000100
Vertical Units,V
Vertical Scale,CH1:0.500000,CH2:0.500000
Vertival Offset,CH1:0.000000,CH2:0.000000
Horizontal Units,ms
Horizontal Scale,0.005000
Horizontal Position,0.000000
Model Number,GA1042CAL
Serial Number,110000S1505052412
Software Version,2.01
Source,CH1,CH2
No.,Volt,Volt
1,-0.100000,0.600000
2,-0.180000,0.560000
3,-0.260000,0.500000
4,-0.360000,0.440000
5,-0.440000,0.400000
6,-0.520000,0.340000
7,-0.620000,0.300000
8,-0.700000,0.240000
9,-0.800000,0.160000
10,-0.860000,0.120000
11,-0.920000,0.060000
12,-1.020000,-0.020000
13,-1.060000,-0.060000
14,-1.120000,-0.140000
15,-1.180000,-0.180000
16,-1.240000,-0.260000
17,-1.300000,-0.300000
18,-1.340000,-0.360000
19,-1.380000,-0.400000
20,-1.420000,-0.460000
21,-1.460000,-0.520000
22,-1.480000,-0.580000
23,-1.500000,-0.620000
24,-1.520000,-0.660000
25,-1.520000,-0.700000
26,-1.520000,-0.740000
27,-1.520000,-0.780000
28,-1.520000,-0.820000
29,-1.500000,-0.840000
30,-1.480000,-0.880000
31,-1.460000,-0.900000
32,-1.440000,-0.920000
33,-1.380000,-0.920000
34,-1.340000,-0.940000
35,-1.280000,-0.960000
36,-1.220000,-0.960000
37,-1.140000,-0.960000
38,-1.080000,-0.960000
39,-1.020000,-0.960000
40,-0.940000,-0.980000
41,-0.860000,-0.940000
42,-0.780000,-0.940000
43,-0.700000,-0.920000
44,-0.620000,-0.900000
45,-0.520000,-0.860000
46,-0.420000,-0.820000
47,-0.340000,-0.820000
48,-0.260000,-0.780000
49,-0.160000,-0.720000
50,-0.080000,-0.700000
51,0.020000,-0.660000
52,0.100000,-0.620000
53,0.200000,-0.560000
54,0.300000,-0.500000
55,0.360000,-0.460000
56,0.460000,-0.400000
57,0.560000,-0.340000
58,0.640000,-0.280000
59,0.720000,-0.220000
60,0.800000,-0.160000
61,0.880000,-0.120000
62,0.960000,-0.040000
63,1.020000,0.000000
64,1.080000,0.060000
65,1.140000,0.140000
66,1.200000,0.200000
67,1.260000,0.240000
68,1.300000,0.300000
69,1.360000,0.360000
70,1.400000,0.420000
71,1.440000,0.460000
72,1.440000,0.520000
73,1.460000,0.560000
74,1.500000,0.620000
75,1.500000,0.660000
76,1.500000,0.680000
77,1.500000,0.740000
78,1.500000,0.780000
79,1.480000,0.800000
80,1.440000,0.840000
81,1.400000,0.840000
82,1.380000,0.880000
83,1.340000,0.900000
84,1.300000,0.920000
85,1.240000,0.940000
86,1.160000,0.940000
87,1.100000,0.940000
88,1.020000,0.940000
89,0.960000,0.940000
90,0.880000,0.940000
91,0.800000,0.920000
92,0.600000,0.760000
93,0.600000,0.780000
94,0.560000,0.860000
95,0.440000,0.820000
96,0.380000,0.820000
97,0.280000,0.760000
98,0.200000,0.720000
99,0.100000,0.700000
100,0.000000,0.660000
101,-0.080000,0.600000
102,-0.160000,0.560000
103,-0.280000,0.500000
104,-0.360000,0.440000
105,-0.440000,0.400000
106,-0.520000,0.340000
107,-0.620000,0.300000
108,-0.700000,0.220000
109,-0.800000,0.160000
110,-0.860000,0.120000
111,-0.920000,0.060000
112,-1.000000,0.000000
113,-1.080000,-0.080000
114,-1.140000,-0.140000
115,-1.180000,-0.200000
116,-1.240000,-0.260000
117,-1.280000,-0.300000
118,-1.320000,-0.360000
119,-1.440000,-0.480000
120,-1.460000,-0.480000
121,-1.460000,-0.540000
122,-1.480000,-0.560000
123,-1.520000,-0.620000
124,-1.520000,-0.640000
125,-1.520000,-0.700000
126,-1.540000,-0.760000
127,-1.540000,-0.800000
128,-1.520000,-0.800000
129,-1.480000,-0.840000
130,-1.480000,-0.880000
131,-1.460000,-0.900000
132,-1.420000,-0.920000
133,-1.380000,-0.940000
134,-1.320000,-0.940000
135,-1.280000,-0.960000
136,-1.220000,-0.960000
137,-1.160000,-0.960000
138,-1.080000,-0.980000
139,-1.020000,-0.960000
140,-0.940000,-0.960000
141,-0.860000,-0.940000
142,-0.780000,-0.940000
143,-0.680000,-0.920000
144,-0.620000,-0.900000
145,-0.520000,-0.860000
146,-0.420000,-0.840000
147,-0.340000,-0.820000
148,-0.280000,-0.780000
149,-0.180000,-0.720000
150,-0.060000,-0.680000
151,0.020000,-0.640000
152,0.100000,-0.620000
153,0.200000,-0.560000
154,0.300000,-0.500000
155,0.360000,-0.460000
156,0.440000,-0.400000
157,0.540000,-0.340000
158,0.640000,-0.280000
159,0.740000,-0.220000
160,0.800000,-0.180000
161,0.880000,-0.120000
162,0.940000,-0.040000
163,1.020000,0.020000
164,1.060000,0.080000
165,1.140000,0.140000
166,1.200000,0.200000
167,1.260000,0.260000
168,1.300000,0.300000
169,1.360000,0.360000
170,1.380000,0.420000
171,1.420000,0.480000
172,1.440000,0.520000
173,1.480000,0.560000
174,1.500000,0.620000
175,1.500000,0.660000
176,1.500000,0.700000
177,1.480000,0.740000
178,1.500000,0.780000
179,1.480000,0.800000
180,1.460000,0.820000
181,1.440000,0.860000
182,1.380000,0.880000
183,1.340000,0.900000
184,1.280000,0.900000
185,1.240000,0.920000
186,1.160000,0.940000
187,1.100000,0.940000
188,1.040000,0.940000
189,0.960000,0.940000
190,0.880000,0.940000
191,0.800000,0.920000
192,0.720000,0.900000
193,0.640000,0.880000
194,0.540000,0.860000
195,0.460000,0.840000
196,0.360000,0.800000
197,0.300000,0.760000
198,0.200000,0.740000
199,0.100000,0.680000
200,0.020000,0.640000
201,-0.080000,0.580000
202,-0.180000,0.540000
203,-0.260000,0.500000
204,-0.360000,0.440000
205,-0.440000,0.400000
206,-0.540000,0.340000
207,-0.620000,0.280000
208,-0.700000,0.220000
209,-0.780000,0.160000
210,-0.840000,0.120000
211,-0.920000,0.060000
212,-1.000000,-0.020000
213,-1.080000,-0.080000
214,-1.120000,-0.120000
215,-1.180000,-0.200000
216,-1.260000,-0.260000
217,-1.300000,-0.320000
218,-1.340000,-0.360000
219,-1.360000,-0.420000
220,-1.420000,-0.480000
221,-1.440000,-0.520000
222,-1.480000,-0.560000
223,-1.500000,-0.620000
224,-1.520000,-0.660000
225,-1.520000,-0.700000
226,-1.520000,-0.740000
227,-1.520000,-0.780000
228,-1.520000,-0.820000
229,-1.500000,-0.860000
230,-1.480000,-0.860000
231,-1.440000,-0.900000
232,-1.420000,-0.920000
233,-1.380000,-0.940000
234,-1.320000,-0.960000
235,-1.280000,-0.960000
236,-1.220000,-0.960000
237,-1.160000,-0.960000
238,-1.080000,-0.960000
239,-1.020000,-0.960000
240,-0.940000,-0.960000
241,-0.860000,-0.940000
242,-0.760000,-0.920000
243,-0.700000,-0.920000
244,-0.620000,-0.900000
245,-0.520000,-0.860000
246,-0.420000,-0.860000
247,-0.340000,-0.820000
248,-0.260000,-0.780000
249,-0.160000,-0.740000
250,-0.080000,-0.680000
251,0.020000,-0.640000
252,0.100000,-0.620000
253,0.180000,-0.560000
254,0.280000,-0.500000
255,0.380000,-0.440000
256,0.460000,-0.420000
257,0.560000,-0.340000
258,0.640000,-0.280000
259,0.740000,-0.220000
260,0.800000,-0.160000
261,0.860000,-0.100000
262,0.960000,-0.040000
263,1.000000,0.000000
264,1.060000,0.060000
265,1.140000,0.140000
266,1.220000,0.200000
267,1.260000,0.260000
268,1.300000,0.300000
269,1.340000,0.360000
270,1.380000,0.420000
271,1.420000,0.480000
272,1.440000,0.520000
273,1.480000,0.580000
274,1.500000,0.600000
275,1.500000,0.660000
276,1.520000,0.680000
277,1.500000,0.740000
278,1.500000,0.780000
279,1.480000,0.820000
280,1.440000,0.820000
281,1.420000,0.860000
282,1.380000,0.900000
283,1.340000,0.900000
284,1.300000,0.900000
285,1.220000,0.920000
286,1.160000,0.940000
287,1.100000,0.940000
288,1.040000,0.940000
289,0.960000,0.940000
290,0.880000,0.920000
291,0.800000,0.920000
292,0.580000,0.740000
293,0.620000,0.800000
294,0.560000,0.860000
295,0.460000,0.820000
296,0.380000,0.820000
297,0.280000,0.760000
298,0.180000,0.740000
299,0.100000,0.680000
300,0.020000,0.660000
301,-0.080000,0.600000
302,-0.160000,0.560000
303,-0.280000,0.500000
304,-0.360000,0.440000
305,-0.440000,0.400000
306,-0.520000,0.340000
307,-0.620000,0.300000
308,-0.700000,0.220000
309,-0.800000,0.160000
310,-0.860000,0.120000
311,-0.920000,0.060000
312,-1.000000,0.000000
313,-1.080000,-0.080000
314,-1.120000,-0.140000
315,-1.180000,-0.180000
316,-1.240000,-0.240000
317,-1.280000,-0.280000
318,-1.340000,-0.360000
319,-1.440000,-0.480000
320,-1.440000,-0.480000
321,-1.460000,-0.540000
322,-1.480000,-0.580000
323,-1.500000,-0.620000
324,-1.500000,-0.640000
325,-1.520000,-0.720000
326,-1.540000,-0.760000
327,-1.520000,-0.780000
328,-1.520000,-0.820000
329,-1.480000,-0.840000
330,-1.480000,-0.880000
331,-1.440000,-0.900000
332,-1.420000,-0.920000
333,-1.380000,-0.920000
334,-1.320000,-0.940000
335,-1.280000,-0.960000
336,-1.220000,-0.960000
337,-1.160000,-0.980000
338,-1.080000,-0.960000
339,-1.020000,-0.960000
340,-0.960000,-0.960000
341,-0.860000,-0.940000
342,-0.780000,-0.940000
343,-0.680000,-0.900000
344,-0.620000,-0.880000
345,-0.540000,-0.880000
346,-0.420000,-0.840000
347,-0.340000,-0.800000
348,-0.280000,-0.780000
349,-0.160000,-0.740000
350,-0.080000,-0.680000
351,0.020000,-0.660000
352,0.100000,-0.600000
353,0.200000,-0.560000
354,0.300000,-0.500000
355,0.380000,-0.440000
356,0.460000,-0.400000
357,0.540000,-0.340000
358,0.660000,-0.280000
359,0.720000,-0.220000
360,0.780000,-0.180000
361,0.880000,-0.100000
362,0.960000,-0.040000
363,1.020000,0.020000
364,1.080000,0.080000
365,1.140000,0.120000
366,1.200000,0.200000
367,1.240000,0.260000
368,1.280000,0.300000
369,1.340000,0.360000
370,1.380000,0.440000
371,1.420000,0.480000
372,1.440000,0.500000
373,1.480000,0.580000
374,1.500000,0.620000
375,1.500000,0.660000
376,1.500000,0.680000
377,1.500000,0.740000
378,1.500000,0.780000
379,1.480000,0.800000
380,1.440000,0.820000
381,1.420000,0.840000
382,1.380000,0.880000
383,1.340000,0.900000
384,1.280000,0.900000
385,1.240000,0.920000
386,1.180000,0.940000
387,1.100000,0.940000
388,1.040000,0.940000
389,0.960000,0.940000
390,0.880000,0.920000
391,0.800000,0.920000
392,0.700000,0.900000
393,0.620000,0.880000
394,0.540000,0.860000
395,0.460000,0.840000
396,0.360000,0.800000
397,0.280000,0.760000
398,0.200000,0.740000
399,0.100000,0.700000
400,0.020000,0.660000
401,-0.080000,0.600000
402,-0.160000,0.560000
403,-0.280000,0.520000
404,-0.360000,0.440000
405,-0.440000,0.380000
406,-0.540000,0.340000
407,-0.620000,0.280000
408,-0.700000,0.220000
409,-0.800000,0.180000
410,-0.860000,0.120000
411,-0.920000,0.060000
412,-1.020000,0.000000
413,-1.080000,-0.080000
414,-1.120000,-0.140000
415,-1.180000,-0.180000
416,-1.240000,-0.240000
417,-1.300000,-0.320000
418,-1.340000,-0.380000
419,-1.360000,-0.420000
420,-1.420000,-0.460000
421,-1.460000,-0.520000
422,-1.480000,-0.560000
423,-1.500000,-0.620000
424,-1.520000,-0.660000
425,-1.520000,-0.700000
426,-1.540000,-0.740000
427,-1.520000,-0.780000
428,-1.520000,-0.820000
429,-1.500000,-0.840000
430,-1.480000,-0.860000
431,-1.460000,-0.900000
432,-1.420000,-0.920000
433,-1.380000,-0.940000
434,-1.320000,-0.940000
435,-1.280000,-0.960000
436,-1.240000,-0.960000
437,-1.160000,-0.960000
438,-1.080000,-0.960000
439,-1.000000,-0.960000
440,-0.940000,-0.960000
441,-0.860000,-0.960000
442,-0.780000,-0.940000
443,-0.680000,-0.920000
444,-0.620000,-0.900000
445,-0.520000,-0.860000
446,-0.440000,-0.840000
447,-0.340000,-0.800000
448,-0.260000,-0.800000
449,-0.180000,-0.740000
450,-0.080000,-0.680000
451,0.020000,-0.660000
452,0.100000,-0.600000
453,0.180000,-0.560000
454,0.300000,-0.500000
455,0.380000,-0.440000
456,0.440000,-0.400000
457,0.540000,-0.340000
458,0.640000,-0.280000
459,0.720000,-0.220000
460,0.800000,-0.180000
461,0.880000,-0.100000
462,0.940000,-0.040000
463,1.020000,0.020000
464,1.080000,0.080000
465,1.140000,0.120000
466,1.200000,0.200000
467,1.260000,0.260000
468,1.300000,0.300000
469,1.360000,0.360000
470,1.400000,0.420000
471,1.420000,0.480000
472,1.460000,0.520000
473,1.480000,0.580000
474,1.500000,0.600000
475,1.500000,0.660000
476,1.500000,0.680000
477,1.500000,0.740000
478,1.500000,0.780000
479,1.480000,0.800000
480,1.440000,0.840000
481,1.420000,0.860000
482,1.380000,0.880000
483,1.340000,0.900000
484,1.280000,0.920000
485,1.240000,0.940000
486,1.160000,0.920000
487,1.100000,0.940000
488,1.020000,0.940000
489,0.960000,0.940000
490,0.780000,0.800000
491,0.880000,0.960000
492,0.700000,0.900000
493,0.620000,0.900000
494,0.540000,0.860000
495,0.460000,0.840000
496,0.360000,0.780000
497,0.280000,0.780000
498,0.200000,0.740000
499,0.100000,0.700000
500,0.000000,0.620000
501,-0.100000,0.600000
502,-0.160000,0.560000
503,-0.260000,0.500000
504,-0.360000,0.440000
505,-0.460000,0.380000
506,-0.540000,0.340000
507,-0.620000,0.280000
508,-0.700000,0.220000
509,-0.800000,0.160000
510,-0.860000,0.120000
511,-0.940000,0.060000
512,-1.000000,-0.020000
513,-1.060000,-0.080000
514,-1.120000,-0.120000
515,-1.140000,-0.120000
516,-1.320000,-0.320000
517,-1.340000,-0.340000
518,-1.340000,-0.360000
519,-1.380000,-0.420000
520,-1.440000,-0.500000
521,-1.440000,-0.500000
522,-1.480000,-0.560000
523,-1.500000,-0.620000
524,-1.520000,-0.680000
525,-1.520000,-0.700000
526,-1.520000,-0.740000
527,-1.520000,-0.780000
528,-1.520000,-0.840000
529,-1.500000,-0.860000
530,-1.480000,-0.880000
531,-1.460000,-0.900000
532,-1.420000,-0.920000
533,-1.380000,-0.920000
534,-1.340000,-0.940000
535,-1.280000,-0.960000
536,-1.240000,-0.960000
537,-1.160000,-0.960000
538,-1.100000,-0.960000
539,-1.020000,-0.960000
540,-0.940000,-0.960000
541,-0.860000,-0.940000
542,-0.780000,-0.940000
543,-0.680000,-0.900000
544,-0.620000,-0.900000
545,-0.520000,-0.860000
546,-0.420000,-0.840000
547,-0.360000,-0.800000
548,-0.280000,-0.780000
549,-0.160000,-0.740000
550,-0.080000,-0.680000
551,0.020000,-0.640000
552,0.100000,-0.620000
553,0.200000,-0.560000
554,0.300000,-0.500000
555,0.380000,-0.440000
556,0.460000,-0.400000
557,0.560000,-0.340000
558,0.660000,-0.280000
559,0.720000,-0.220000
560,0.800000,-0.180000
561,0.880000,-0.100000
562,0.940000,-0.040000
563,1.020000,0.020000
564,1.060000,0.060000
565,1.140000,0.120000
566,1.220000,0.180000
567,1.260000,0.260000
568,1.280000,0.300000
569,1.340000,0.360000
570,1.380000,0.420000
571,1.420000,0.480000
572,1.440000,0.520000
573,1.480000,0.560000
574,1.480000,0.620000
575,1.500000,0.660000
576,1.500000,0.700000
577,1.500000,0.740000
578,1.500000,0.760000
579,1.480000,0.800000
580,1.440000,0.840000
581,1.440000,0.860000
582,1.380000,0.880000
583,1.340000,0.900000
584,1.280000,0.920000
585,1.220000,0.920000
586,1.180000,0.940000
587,1.100000,0.940000
588,1.040000,0.940000
589,0.940000,0.940000
590,0.880000,0.940000
591,0.820000,0.920000
592,0.720000,0.900000
593,0.620000,0.880000
594,0.540000,0.860000
595,0.480000,0.840000
596,0.360000,0.800000
597,0.280000,0.760000
598,0.200000,0.740000
599,0.100000,0.700000
600,0.020000,0.640000
601,-0.080000,0.600000
602,-0.160000,0.560000
603,-0.260000,0.500000
604,-0.360000,0.440000
605,-0.440000,0.400000
606,-0.540000,0.340000
607,-0.620000,0.280000
608,-0.720000,0.240000
609,-0.800000,0.160000
610,-0.860000,0.100000
611,-0.940000,0.060000
612,-1.000000,0.000000
613,-1.060000,-0.080000
614,-1.120000,-0.140000
615,-1.180000,-0.180000
616,-1.240000,-0.260000
617,-1.300000,-0.300000
618,-1.340000,-0.360000
619,-1.380000,-0.420000
620,-1.420000,-0.460000
621,-1.460000,-0.540000
622,-1.480000,-0.580000
623,-1.500000,-0.620000
624,-1.500000,-0.660000
625,-1.520000,-0.700000
626,-1.520000,-0.740000
627,-1.520000,-0.780000
628,-1.520000,-0.820000
629,-1.500000,-0.860000
630,-1.460000,-0.860000
631,-1.460000,-0.880000
632,-1.420000,-0.920000
633,-1.380000,-0.940000
634,-1.320000,-0.960000
635,-1.280000,-0.960000
636,-1.220000,-0.960000
637,-1.160000,-0.960000
638,-1.080000,-0.960000
639,-1.020000,-0.960000
640,-0.960000,-0.960000
641,-0.860000,-0.940000
642,-0.780000,-0.940000
643,-0.700000,-0.920000
644,-0.620000,-0.900000
645,-0.520000,-0.860000
646,-0.440000,-0.840000
647,-0.360000,-0.820000
648,-0.260000,-0.780000
649,-0.160000,-0.740000
650,-0.060000,-0.700000
651,0.020000,-0.660000
652,0.100000,-0.620000
653,0.180000,-0.580000
654,0.280000,-0.520000
655,0.380000,-0.440000
656,0.460000,-0.400000
657,0.560000,-0.340000
658,0.640000,-0.280000
659,0.720000,-0.220000
660,0.800000,-0.160000
661,0.860000,-0.120000
662,0.940000,-0.060000
663,1.020000,0.020000
664,1.080000,0.060000
665,1.140000,0.120000
666,1.200000,0.200000
667,1.260000,0.260000
668,1.300000,0.300000
669,1.340000,0.360000
670,1.380000,0.420000
671,1.420000,0.480000
672,1.440000,0.520000
673,1.480000,0.560000
674,1.500000,0.620000
675,1.500000,0.660000
676,1.500000,0.700000
677,1.500000,0.740000
678,1.480000,0.780000
679,1.480000,0.800000
680,1.460000,0.840000
681,1.420000,0.860000
682,1.380000,0.880000
683,1.340000,0.900000
684,1.280000,0.920000
685,1.240000,0.940000
686,1.040000,0.800000
687,1.060000,0.840000
688,1.060000,0.960000
689,0.940000,0.920000
690,0.880000,0.940000
691,0.800000,0.920000
692,0.720000,0.900000
693,0.620000,0.880000
694,0.540000,0.880000
695,0.480000,0.840000
696,0.380000,0.800000
697,0.260000,0.760000
698,0.180000,0.720000
699,0.100000,0.700000
700,0.020000,0.660000
